v 20110115 2
B 300 200 400 1300 3 0 0 0 -1 -1 0 -1 -1 -1 -1 -1
B 700 200 400 1300 3 0 0 0 -1 -1 0 -1 -1 -1 -1 -1
B 1100 200 300 1300 3 0 0 0 -1 -1 0 -1 -1 -1 -1 -1
P 100 1200 300 1200 1 0 0
{
T 100 1200 5 10 0 0 0 0 1
pintype=in
T 355 1120 5 10 1 1 0 0 1
pinlabel=C
T 205 1245 5 10 1 1 0 6 1
pinnumber=1
T 100 1200 5 10 0 0 0 0 1
pinseq=1
}
P 100 600 300 600 1 0 0
{
T 100 600 5 10 0 0 0 0 1
pintype=in
T 380 545 5 10 1 1 0 0 1
pinlabel=R
T 205 645 5 10 1 1 0 6 1
pinnumber=13
T 100 600 5 10 0 0 0 0 1
pinseq=2
}
P 1600 1400 1400 1400 1 0 0
{
T 1600 1400 5 10 0 0 0 0 1
pintype=out
T 1320 1345 5 10 1 1 0 6 1
pinlabel=1
T 1495 1445 5 10 1 1 0 0 1
pinnumber=3
T 1600 1400 5 10 0 0 0 0 1
pinseq=3
}
T -300 600 8 10 0 1 0 0 1
description=Шестиразрядный двоичный счетчик-делитель.
T 465 0 8 10 1 1 0 0 1
device=К176ИЕ1
T 750 1575 8 10 1 1 0 0 1
refdes=U?
T 600 400 8 10 0 0 0 0 1
footprint=DIP14
T 600 0 8 10 0 0 0 0 1
net=GND:7
T 600 200 8 10 0 0 0 0 1
numslots=1
T 600 -200 8 10 0 0 0 0 1
net=Vcc:14
P 1600 1200 1400 1200 1 0 0
{
T 1600 1200 5 10 0 0 0 0 1
pintype=out
T 1320 1145 5 10 1 1 0 6 1
pinlabel=2
T 1495 1245 5 10 1 1 0 0 1
pinnumber=4
T 1600 1200 5 10 0 0 0 0 1
pinseq=4
}
P 1600 1000 1400 1000 1 0 0
{
T 1600 1000 5 10 0 0 0 0 1
pintype=out
T 1320 945 5 10 1 1 0 6 1
pinlabel=4
T 1495 1045 5 10 1 1 0 0 1
pinnumber=5
T 1600 1000 5 10 0 0 0 0 1
pinseq=5
}
P 1600 800 1400 800 1 0 0
{
T 1600 800 5 10 0 0 0 0 1
pintype=out
T 1320 745 5 10 1 1 0 6 1
pinlabel=8
T 1495 845 5 10 1 1 0 0 1
pinnumber=10
T 1600 800 5 10 0 0 0 0 1
pinseq=6
}
T 725 1300 9 10 1 0 0 0 1
CT2
P 1600 600 1400 600 1 0 0
{
T 1600 600 5 10 0 0 0 0 1
pintype=out
T 1320 545 5 10 1 1 0 6 1
pinlabel=16
T 1495 645 5 10 1 1 0 0 1
pinnumber=11
T 1600 600 5 10 0 0 0 0 1
pinseq=7
}
P 1600 400 1400 400 1 0 0
{
T 1600 400 5 10 0 0 0 0 1
pintype=out
T 1320 345 5 10 1 1 0 6 1
pinlabel=32
T 1495 445 5 10 1 1 0 0 1
pinnumber=12
T 1600 400 5 10 0 0 0 0 1
pinseq=8
}
